<?xml version="1.0" encoding="UTF-8" standalone="no"?>
<!-- Created with Inkscape (http://www.inkscape.org/) -->

<svg
   width="210mm"
   height="297mm"
   viewBox="0 0 210 297"
   version="1.1"
   id="svg5"
   xml:space="preserve"
   inkscape:version="1.2.2 (b0a8486541, 2022-12-01)"
   sodipodi:docname="soft.svg"
   inkscape:export-filename="soft.png"
   inkscape:export-xdpi="180"
   inkscape:export-ydpi="180"
   xmlns:inkscape="http://www.inkscape.org/namespaces/inkscape"
   xmlns:sodipodi="http://sodipodi.sourceforge.net/DTD/sodipodi-0.dtd"
   xmlns="http://www.w3.org/2000/svg"
   xmlns:svg="http://www.w3.org/2000/svg"><sodipodi:namedview
     id="namedview7"
     pagecolor="#ffffff"
     bordercolor="#000000"
     borderopacity="0.25"
     inkscape:showpageshadow="2"
     inkscape:pageopacity="0.0"
     inkscape:pagecheckerboard="0"
     inkscape:deskcolor="#d1d1d1"
     inkscape:document-units="mm"
     showgrid="true"
     inkscape:zoom="0.8632"
     inkscape:cx="481.34847"
     inkscape:cy="320.89898"
     inkscape:window-width="1600"
     inkscape:window-height="831"
     inkscape:window-x="0"
     inkscape:window-y="0"
     inkscape:window-maximized="1"
     inkscape:current-layer="layer1"><inkscape:grid
       type="xygrid"
       id="grid1412" /></sodipodi:namedview><defs
     id="defs2"><marker
       style="overflow:visible"
       id="marker3782"
       refX="0"
       refY="0"
       orient="auto-start-reverse"
       inkscape:stockid="Arrow1"
       markerWidth="4.0606599"
       markerHeight="6.7071061"
       viewBox="0 0 4.0606602 6.7071068"
       inkscape:isstock="true"
       inkscape:collect="always"
       preserveAspectRatio="xMidYMid"><path
         style="fill:none;stroke:context-stroke;stroke-width:1;stroke-linecap:butt"
         d="M 3,-3 0,0 3,3"
         id="path3780"
         transform="rotate(180,0.125,0)"
         sodipodi:nodetypes="ccc" /></marker><marker
       style="overflow:visible"
       id="marker3718"
       refX="0"
       refY="0"
       orient="auto-start-reverse"
       inkscape:stockid="Arrow1"
       markerWidth="4.0606604"
       markerHeight="6.7071066"
       viewBox="0 0 4.0606602 6.7071068"
       inkscape:isstock="true"
       inkscape:collect="always"
       preserveAspectRatio="xMidYMid"><path
         style="fill:none;stroke:context-stroke;stroke-width:1;stroke-linecap:butt"
         d="M 3,-3 0,0 3,3"
         id="path3716"
         transform="rotate(180,0.125,0)"
         sodipodi:nodetypes="ccc" /></marker><marker
       style="overflow:visible"
       id="marker3592"
       refX="0"
       refY="0"
       orient="auto-start-reverse"
       inkscape:stockid="Arrow1"
       markerWidth="4.0606604"
       markerHeight="6.7071066"
       viewBox="0 0 4.0606602 6.7071068"
       inkscape:isstock="true"
       inkscape:collect="always"
       preserveAspectRatio="xMidYMid"><path
         style="fill:none;stroke:context-stroke;stroke-width:1;stroke-linecap:butt"
         d="M 3,-3 0,0 3,3"
         id="path3590"
         transform="rotate(180,0.125,0)"
         sodipodi:nodetypes="ccc" /></marker><marker
       style="overflow:visible"
       id="Arrow1"
       refX="0"
       refY="0"
       orient="auto-start-reverse"
       inkscape:stockid="Arrow1"
       markerWidth="4.0606604"
       markerHeight="6.7071066"
       viewBox="0 0 4.0606602 6.7071068"
       inkscape:isstock="true"
       inkscape:collect="always"
       preserveAspectRatio="xMidYMid"><path
         style="fill:none;stroke:context-stroke;stroke-width:1;stroke-linecap:butt"
         d="M 3,-3 0,0 3,3"
         id="path5057"
         transform="rotate(180,0.125,0)"
         sodipodi:nodetypes="ccc" /></marker><marker
       style="overflow:visible"
       id="marker3718-9"
       refX="0"
       refY="0"
       orient="auto-start-reverse"
       inkscape:stockid="Arrow1"
       markerWidth="4.0606604"
       markerHeight="6.7071066"
       viewBox="0 0 4.0606602 6.7071068"
       inkscape:isstock="true"
       inkscape:collect="always"
       preserveAspectRatio="xMidYMid"><path
         style="fill:none;stroke:context-stroke;stroke-width:1;stroke-linecap:butt"
         d="M 3,-3 0,0 3,3"
         id="path3716-1"
         transform="rotate(180,0.125,0)"
         sodipodi:nodetypes="ccc" /></marker><marker
       style="overflow:visible"
       id="marker3782-2"
       refX="0"
       refY="0"
       orient="auto-start-reverse"
       inkscape:stockid="Arrow1"
       markerWidth="4.0606604"
       markerHeight="6.7071066"
       viewBox="0 0 4.0606602 6.7071068"
       inkscape:isstock="true"
       inkscape:collect="always"
       preserveAspectRatio="xMidYMid"><path
         style="fill:none;stroke:context-stroke;stroke-width:1;stroke-linecap:butt"
         d="M 3,-3 0,0 3,3"
         id="path3780-7"
         transform="rotate(180,0.125,0)"
         sodipodi:nodetypes="ccc" /></marker></defs><g
     inkscape:label="Layer 1"
     inkscape:groupmode="layer"
     id="layer1"><text
       xml:space="preserve"
       style="font-size:7.05556px;fill:#878787;stroke:#000000;stroke-width:0.165;stroke-dasharray:0.165, 0.989999"
       x="73.445404"
       y="27.129736"
       id="text3257"><tspan
         sodipodi:role="line"
         id="tspan3255"
         style="font-size:7.05556px;stroke-width:0.165"
         x="73.445404"
         y="27.129736" /></text><path
       style="fill:none;fill-opacity:1;stroke:#000000;stroke-width:0.165;stroke-dasharray:none"
       d="m 190.5,125.67708 h 2.64583 v -2.64583"
       id="path5799"
       inkscape:export-filename="soft.png"
       inkscape:export-xdpi="180"
       inkscape:export-ydpi="180" /><path
       style="fill:none;fill-opacity:1;stroke:#000000;stroke-width:0.165;stroke-dasharray:none"
       d="M 13.229167,19.84375 V 17.197916 H 15.875"
       id="path6007" /><text
       xml:space="preserve"
       style="font-size:4.9389px;fill:#030303;fill-opacity:1;stroke:#030303;stroke-width:0.165;stroke-dasharray:none;stroke-opacity:1"
       x="78.052086"
       y="26.458332"
       id="text6011"><tspan
         sodipodi:role="line"
         id="tspan6009"
         style="fill:#030303;fill-opacity:1;stroke:#030303;stroke-width:0.165;stroke-opacity:1"
         x="78.052086"
         y="26.458332" /></text><text
       xml:space="preserve"
       style="font-size:4.9389px;white-space:pre;inline-size:1.14778;display:inline;fill:#030303;fill-opacity:1;stroke:#030303;stroke-width:0.2;stroke-dasharray:none;stroke-opacity:1"
       x="107.33138"
       y="32.982426"
       id="text7277-6"><tspan
         x="107.33138"
         y="32.982426"
         id="tspan4717"><tspan
           dx="0 2.4990859 1.9409862 2.7707267 1.6989808"
           id="tspan4715">Trafo</tspan></tspan></text><circle
       style="fill:none;stroke:#030303;stroke-width:0.274892;stroke-dasharray:none"
       id="path2202"
       cx="43.65625"
       cy="76.220085"
       r="13.091721" /><circle
       style="fill:none;stroke:#030303;stroke-width:0.274892;stroke-dasharray:none"
       id="path2202-6"
       cx="43.65625"
       cy="39.6875"
       r="13.091721" /><circle
       style="fill:none;stroke:#030303;stroke-width:0.274892;stroke-dasharray:none"
       id="path2202-3"
       cx="103.34366"
       cy="76.586838"
       r="13.091721" /><circle
       style="fill:none;stroke:#030303;stroke-width:0.274892;stroke-dasharray:none"
       id="path2202-3-2"
       cx="165.03328"
       cy="76.220078"
       r="13.091721" /><text
       xml:space="preserve"
       style="font-size:4.23333px;fill:#030303;fill-opacity:1;stroke:#030303;stroke-width:0.2;stroke-dasharray:none"
       x="32.953896"
       y="77.400665"
       id="text2391"><tspan
         sodipodi:role="line"
         id="tspan2389"
         style="fill:#030303;fill-opacity:1;stroke-width:0.2;stroke-dasharray:none"
         x="32.953896"
         y="77.400665">Controller</tspan></text><text
       xml:space="preserve"
       style="font-size:4.23333px;fill:#030303;fill-opacity:1;stroke:#030303;stroke-width:0.2;stroke-dasharray:none"
       x="32.953896"
       y="77.400665"
       id="text2391-5"><tspan
         sodipodi:role="line"
         id="tspan2389-3"
         style="fill:#030303;fill-opacity:1;stroke-width:0.2;stroke-dasharray:none"
         x="32.953896"
         y="77.400665">Controller</tspan></text><text
       xml:space="preserve"
       style="font-size:4.23333px;fill:#030303;fill-opacity:1;stroke:#030303;stroke-width:0.2;stroke-dasharray:none"
       x="41.369736"
       y="40.868084"
       id="text2391-5-1"><tspan
         sodipodi:role="line"
         id="tspan2389-3-8"
         style="fill:#030303;fill-opacity:1;stroke-width:0.2;stroke-dasharray:none"
         x="41.369736"
         y="40.868084">CLI</tspan></text><text
       xml:space="preserve"
       style="font-size:4.23333px;fill:#030303;fill-opacity:1;stroke:#030303;stroke-width:0.2;stroke-dasharray:none"
       x="66.28714"
       y="74.602432"
       id="text2391-5-0"><tspan
         sodipodi:role="line"
         id="tspan2389-3-62"
         style="fill:#030303;fill-opacity:1;stroke-width:0.2;stroke-dasharray:none"
         x="66.28714"
         y="74.602432">gRPC</tspan></text><text
       xml:space="preserve"
       style="font-size:4.23333px;fill:#030303;fill-opacity:1;stroke:#030303;stroke-width:0.2;stroke-dasharray:none"
       x="47.766312"
       y="58.727432"
       id="text2391-5-0-7"><tspan
         sodipodi:role="line"
         id="tspan2389-3-62-9"
         style="fill:#030303;fill-opacity:1;stroke-width:0.2;stroke-dasharray:none"
         x="47.766312"
         y="58.727432">gRPC</tspan></text><text
       xml:space="preserve"
       style="font-size:4.23333px;fill:#030303;fill-opacity:1;stroke:#030303;stroke-width:0.2;stroke-dasharray:none"
       x="37.041668"
       y="108.47916"
       id="text2391-5-5"><tspan
         sodipodi:role="line"
         id="tspan2389-3-6"
         style="fill:#030303;fill-opacity:1;stroke-width:0.2;stroke-dasharray:none"
         x="37.041668"
         y="108.47916">TinyDB</tspan><tspan
         sodipodi:role="line"
         style="fill:#030303;fill-opacity:1;stroke-width:0.2;stroke-dasharray:none"
         x="37.041668"
         y="113.77083"
         id="tspan4515">(JSON)</tspan></text><text
       xml:space="preserve"
       style="font-size:4.23333px;fill:#030303;fill-opacity:1;stroke:#030303;stroke-width:0.2;stroke-dasharray:none"
       x="94.358383"
       y="74.754829"
       id="text2391-6"><tspan
         sodipodi:role="line"
         id="tspan2389-7"
         style="fill:#030303;fill-opacity:1;stroke-width:0.2;stroke-dasharray:none"
         x="94.358383"
         y="74.754829">    Web</tspan><tspan
         sodipodi:role="line"
         style="fill:#030303;fill-opacity:1;stroke-width:0.2;stroke-dasharray:none"
         x="94.358383"
         y="80.046494"
         id="tspan3909">Backend</tspan></text><text
       xml:space="preserve"
       style="font-size:4.23333px;fill:#030303;fill-opacity:1;stroke:#030303;stroke-width:0.2;stroke-dasharray:none"
       x="156.20416"
       y="74.754829"
       id="text2391-6-9"><tspan
         sodipodi:role="line"
         id="tspan2389-7-3"
         style="fill:#030303;fill-opacity:1;stroke-width:0.2;stroke-dasharray:none"
         x="156.20416"
         y="74.754829">    Web</tspan><tspan
         sodipodi:role="line"
         style="fill:#030303;fill-opacity:1;stroke-width:0.2;stroke-dasharray:none"
         x="156.20416"
         y="80.046494"
         id="tspan3909-6"> Browser</tspan></text><rect
       style="fill:none;fill-opacity:1;stroke:#030303;stroke-width:0.3;stroke-dasharray:none"
       id="rect2659"
       width="18.520834"
       height="18.520834"
       x="34.395832"
       y="100.54166" /><path
       style="fill:none;fill-opacity:1;stroke:#030303;stroke-width:0.365148;stroke-dasharray:none;marker-start:url(#Arrow1);marker-end:url(#marker3592)"
       d="M 43.391664,89.429167 V 100.0125"
       id="path3562" /><path
       style="fill:none;fill-opacity:1;stroke:#030303;stroke-width:0.396528;stroke-dasharray:none;marker-start:url(#marker3718);marker-end:url(#marker3782)"
       d="M 57.099914,76.729167 H 89.456697"
       id="path3714" /><path
       style="fill:none;fill-opacity:1;stroke:#030303;stroke-width:0.408831;stroke-dasharray:none;marker-start:url(#marker3718-9);marker-end:url(#marker3782-2)"
       d="m 116.41666,76.729168 h 34.39583"
       id="path3714-0" /><path
       style="fill:none;fill-opacity:1;stroke:#030303;stroke-width:0.28853;stroke-dasharray:none;marker-start:url(#marker3782);marker-end:url(#marker3782)"
       d="M 43.656249,52.916666 V 62.70625"
       id="path4286" /><text
       xml:space="preserve"
       style="font-size:4.23333px;fill:none;fill-opacity:1;stroke:#030303;stroke-width:0.3;stroke-dasharray:none"
       x="98.414711"
       y="101.26316"
       id="text4480"><tspan
         sodipodi:role="line"
         id="tspan4478"
         style="stroke-width:0.3"
         x="98.414711"
         y="101.26316">Flask</tspan></text><text
       xml:space="preserve"
       style="font-size:4.23333px;fill:none;fill-opacity:1;stroke:#030303;stroke-width:0.3;stroke-dasharray:none"
       x="123.03125"
       y="74.083336"
       id="text4480-23"><tspan
         sodipodi:role="line"
         id="tspan4478-7"
         style="stroke-width:0.3"
         x="123.03125"
         y="74.083336">HTTP, XHR</tspan></text><text
       xml:space="preserve"
       style="font-size:4.23333px;fill:none;fill-opacity:1;stroke:#030303;stroke-width:0.3;stroke-dasharray:none"
       x="146.84375"
       y="99.21875"
       id="text4480-2"><tspan
         sodipodi:role="line"
         id="tspan4478-0"
         style="stroke-width:0.3"
         x="146.84375"
         y="99.21875">HTML, JavaScript</tspan></text></g></svg>
