<?xml version="1.0" encoding="UTF-8" standalone="no"?>
<!-- Created with Inkscape (http://www.inkscape.org/) -->

<svg
   width="210mm"
   height="297mm"
   viewBox="0 0 210 297"
   version="1.1"
   id="svg5"
   inkscape:version="1.2.2 (b0a8486541, 2022-12-01)"
   sodipodi:docname="todo.svg"
   xmlns:inkscape="http://www.inkscape.org/namespaces/inkscape"
   xmlns:sodipodi="http://sodipodi.sourceforge.net/DTD/sodipodi-0.dtd"
   xmlns="http://www.w3.org/2000/svg"
   xmlns:svg="http://www.w3.org/2000/svg">
  <sodipodi:namedview
     id="namedview7"
     pagecolor="#ffffff"
     bordercolor="#000000"
     borderopacity="0.25"
     inkscape:showpageshadow="2"
     inkscape:pageopacity="0.0"
     inkscape:pagecheckerboard="0"
     inkscape:deskcolor="#d1d1d1"
     inkscape:document-units="mm"
     showgrid="false"
     inkscape:zoom="0.53629349"
     inkscape:cx="398.10291"
     inkscape:cy="561.25984"
     inkscape:window-width="1600"
     inkscape:window-height="831"
     inkscape:window-x="0"
     inkscape:window-y="0"
     inkscape:window-maximized="1"
     inkscape:current-layer="layer1" />
  <defs
     id="defs2" />
  <g
     inkscape:label="Layer 1"
     inkscape:groupmode="layer"
     id="layer1">
    <rect
       style="fill:none;stroke:#000000;stroke-width:0.165;stroke-dasharray:0.165,0.99;stroke-dashoffset:0"
       id="rect111"
       width="121.53696"
       height="58.34314"
       x="44.109066"
       y="30.680544"
       ry="8.8544779"
       inkscape:export-filename="../rect111.png"
       inkscape:export-xdpi="96"
       inkscape:export-ydpi="96" />
    <text
       xml:space="preserve"
       style="font-size:11.2889px;fill:#878787;fill-opacity:1;stroke:#000000;stroke-width:0.165;stroke-dasharray:0.165, 0.989999;stroke-dashoffset:0"
       x="86.39888"
       y="60.491936"
       id="text953"><tspan
         sodipodi:role="line"
         id="tspan951"
         style="font-size:11.2889px;fill:#878787;fill-opacity:1;stroke-width:0.165"
         x="86.39888"
         y="60.491936">To Do</tspan></text>
  </g>
</svg>
